	AA,1,513.6920036418992,2,505.03516436527633,3,503.9140977542155,4,500.7828814643897,5,499.64500589252486,6,496.05853980247895,7,496.252513446291,8,495.6279869358729,9,491.53576913250623,10,491.13700300753266,11,498.4795987888767,12,508.95083371824916,1115470
	AS,1,215.92675527235096,2,206.4173496910376,3,207.89552518379523,4,203.32404873402595,5,199.85576867377932,6,198.14683633906105,7,196.45965498652214,8,195.39104637416884,9,196.32712838752138,10,199.1869274603414,11,207.39287986423457,12,208.9031873824785,327324
	B6,1,512.7039553010296,2,505.4246860812747,3,503.78995597216016,4,505.6445856245627,5,499.3914917568416,6,501.70967282663366,7,495.6741879248826,8,496.62991389247026,9,486.20509796091875,10,489.9452886151041,11,499.1463502893375,12,506.36741105434777,511720
	DL,1,589.005766446104,2,582.6635580274432,3,578.1361213910587,4,570.4682058841984,5,563.3473701254144,6,568.8243269195038,7,574.0644546559504,8,571.2580457269934,9,551.8772673938346,10,553.4712649806123,11,554.2022003119296,12,580.11303181402,1609477
	EV,1,297.948291126205,2,294.8971473113549,3,294.08377883380115,4,292.85595391201826,5,292.5557169175829,6,291.67585386863334,7,292.35510959421856,8,290.3007333499657,9,289.5936262945151,10,291.4580225941385,11,296.5891055983334,12,298.19779273669525,1472944
	F9,1,135.73016181758692,2,136.89754621204813,3,135.26023232407925,4,134.86578027360267,5,136.3018755420644,6,136.35096174320466,7,134.68468830117436,8,136.05321954484677,9,133.39394492854717,10,134.32082097673782,11,134.5096796468991,12,136.28862011055907,167632
	HA,1,283.3211475409836,2,276.38721653289053,3,274.08282078912407,4,267.958108848195,5,273.72037990196094,6,275.56916830592536,7,282.76541173845095,8,282.6595342673228,9,279.2289799149925,10,274.83190735473283,11,279.6071684078563,12,285.7536087445759,153319
	MQ,1,294.3704266740379,2,297.5326620889393,3,293.40985318108,4,286.3940632111635,5,283.63948594012567,6,282.7806516716968,7,283.5598675935103,8,282.3218548025124,9,280.48131307183615,10,278.2769776283082,11,282.1356338253414,12,287.9255912720701,855669
	NK,1,487.5081489117976,2,0,3,0,4,0,5,0,6,0,7,0,8,0,9,0,10,0,11,0,12,0,8730
	OO,1,291.9876275891717,2,283.5064874753145,3,284.4915119771617,4,281.37500715791583,5,280.2709202972174,6,280.9323042905082,7,283.067574911515,8,282.5136859588142,9,283.6133546390905,10,284.11657758739227,11,289.84975511024004,12,292.8576291947683,1279696
	UA,1,953.5981967519285,2,933.1583262708995,3,948.6000291818633,4,960.9706755785825,5,959.0428368752599,6,977.2249760020497,7,981.0997227563823,8,972.7206153775381,9,943.5187284963525,10,938.1453434769943,11,946.6285562775475,12,971.2178255814063,1034846
	US,1,581.5582252569803,2,568.552449960097,3,577.3770368124364,4,567.1035974406564,5,573.976361691272,6,579.8884069387026,7,578.7700154801003,8,575.5207328939049,9,555.663848551522,10,557.4304971602861,11,567.3927015064203,12,577.3219754118803,858803
	VX,1,644.8676495819708,2,635.0623445335998,3,639.1306366666689,4,654.8661095744689,5,640.640789369296,6,648.7346630164263,7,651.0236573628499,8,640.6943100713701,9,621.3056740485912,10,622.477561658031,11,624.4664083692588,12,628.3505523752143,119158
	WN,1,145.04233969810113,2,138.69999760244866,3,139.58989346004822,4,138.03670588896566,5,137.25786934207846,6,139.25999465903575,7,139.8489018258168,8,137.41796804542093,9,135.5192007108653,10,137.82676850788087,11,142.04181016015102,12,142.19370392222083,2395072
